{
    "type": "object",
    "javaType": "guru.learningjournal.kafka.examples.types.ClicksByNewsType",
    "properties":{
        "NewsType":{
            "type":"string"
        },
        "Clicks": {
            "javaType": "java.lang.Long"
        }
    }
}
